0ns	0
200000ns	16
400000ns	31
600000ns	47
800000ns	63
1000000ns	78
1200000ns	93
1400000ns	108
1600000ns	122
1800000ns	136
2000000ns	149
2200000ns	162
2400000ns	174
2600000ns	185
2800000ns	196
3000000ns	206
3200000ns	215
3400000ns	223
3600000ns	230
3800000ns	237
4000000ns	242
4200000ns	246
4400000ns	250
4600000ns	252
4800000ns	254
5000000ns	254
5200000ns	254
5400000ns	252
5600000ns	250
5800000ns	247
6000000ns	242
6200000ns	237
6400000ns	230
6600000ns	223
6800000ns	215
7000000ns	206
7200000ns	196
7400000ns	185
7600000ns	174
7800000ns	162
8000000ns	149
8200000ns	136
8400000ns	122
8600000ns	108
8800000ns	93
9000000ns	78
9200000ns	63
9400000ns	47
9600000ns	32
9800000ns	16
10000000ns	0
10200000ns	-15
10400000ns	-31
10600000ns	-47
10800000ns	-63
11000000ns	-78
11200000ns	-93
11400000ns	-108
11600000ns	-122
11800000ns	-136
12000000ns	-149
12200000ns	-162
12400000ns	-174
12600000ns	-185
12800000ns	-196
13000000ns	-206
13200000ns	-215
13400000ns	-223
13600000ns	-230
13800000ns	-237
14000000ns	-242
14200000ns	-246
14400000ns	-250
14600000ns	-252
14800000ns	-254
15000000ns	-254
15200000ns	-254
15400000ns	-253
15600000ns	-250
15800000ns	-247
16000000ns	-242
16200000ns	-237
16400000ns	-230
16600000ns	-223
16800000ns	-215
17000000ns	-206
17200000ns	-196
17400000ns	-186
17600000ns	-174
17800000ns	-162
18000000ns	-150
18200000ns	-136
18400000ns	-123
18600000ns	-108
18800000ns	-94
19000000ns	-79
19200000ns	-63
19400000ns	-48
19600000ns	-32
19800000ns	-16
